02/02/14 15:12:35: JB2O-MOMQ-2O7H-L5DD-V8YE
02/02/14 15:12:39: 8ZWC-MY5S-D7EX-MRKA-VINZ
02/02/14 15:12:42: 9Z43-170P-VNRL-E9S2-FFGY
02/02/14 15:12:45: Z53X-LED5-X1CX-H4D0-JR4B
02/02/14 15:12:48: 4JAB-E0RY-8PQF-1KK8-XGO6
02/02/14 15:12:52: TU1R-TDCX-PHN9-OM52-4LFF
02/02/14 15:12:55: DK12-679K-CPFL-UCLQ-RNZZ
02/02/14 15:12:58: 7LX8-GSXI-UBF6-04F5-L7I5
02/02/14 15:13:01: 6MS6-5ILX-V3WY-NRW6-Y20B
02/02/14 15:15:33: JB2O-MOMQ-2O7H-L5DD-V8YE
02/02/14 15:15:36: 8ZWC-MY5S-D7EX-MRKA-VINZ
02/02/14 15:15:39: 9Z43-170P-VNRL-E9S2-FFGY
02/02/14 15:15:42: Z53X-LED5-X1CX-H4D0-JR4B
02/02/14 15:15:46: 4JAB-E0RY-8PQF-1KK8-XGO6
02/02/14 15:15:49: TU1R-TDCX-PHN9-OM52-4LFF
02/02/14 15:16:20: JB2O-MOMQ-2O7H-L5DD-V8YE
02/02/14 15:16:23: 8ZWC-MY5S-D7EX-MRKA-VINZ
02/02/14 15:16:26: 9Z43-170P-VNRL-E9S2-FFGY
02/02/14 15:16:29: Z53X-LED5-X1CX-H4D0-JR4B
02/02/14 15:16:32: 4JAB-E0RY-8PQF-1KK8-XGO6
02/02/14 15:16:35: TU1R-TDCX-PHN9-OM52-4LFF
02/02/14 15:16:38: DK12-679K-CPFL-UCLQ-RNZZ
02/02/14 15:16:41: 7LX8-GSXI-UBF6-04F5-L7I5
02/02/14 15:16:44: 6MS6-5ILX-V3WY-NRW6-Y20B
02/02/14 15:16:47: UG12-IZB2-J2A0-BTCS-05VR
02/02/14 15:16:50: 8881-FIX8-H839-YN2P-SVVV
02/02/14 15:16:53: 3POB-P8G8-QS8K-IQYM-S5NQ
02/05/14 15:35:13: JB2O-MOMQ-2O7H-L5DD-V8YE
02/05/14 15:35:16: 8ZWC-MY5S-D7EX-MRKA-VINZ
02/05/14 15:35:19: 9Z43-170P-VNRL-E9S2-FFGY
02/05/14 15:35:22: Z53X-LED5-X1CX-H4D0-JR4B
02/05/14 15:35:25: 4JAB-E0RY-8PQF-1KK8-XGO6
02/05/14 15:35:28: TU1R-TDCX-PHN9-OM52-4LFF
02/05/14 15:35:31: DK12-679K-CPFL-UCLQ-RNZZ
